Using an Interactions Model to Analyze the Relationship between Deep Sea Corals, Latitude, and Ocean Depth
…
corals

Simple feature collection with 24768 features and 7 fields
Geometry type: POINT
Dimension:     XY
Bounding box:  xmin: -179.99 ymin: -78.9167 xmax: 179.994 ymax: 68.5
Geodetic CRS:  WGS 84
# A tibble: 24,768 × 8
   scientific_name phylum genus species individual_count depth_in_meters country
 * <chr>           <chr>  <chr> <chr>              <dbl> <chr>           <chr>  
 1 Pourtalosmilia… Cnida… Pour… confer…                2 146             USA    
 2 Pourtalosmilia… Cnida… Pour… confer…                6 146             USA    
 3 Pourtalosmilia… Cnida… Pour… confer…                6 84              USA    
 4 Pourtalosmilia… Cnida… Pour… confer…                1 191             USA    
 5 Desmophyllum p… Cnida… Desm… pertus…                1 396             USA    
 6 Desmophyllum p… Cnida… Desm… pertus…                1 577             Bahamas
 7 Desmophyllum p… Cnida… Desm… pertus…                1 738             USA    
 8 Desmophyllum p… Cnida… Desm… pertus…                4 752             USA    
 9 Desmophyllum p… Cnida… Desm… pertus…                4 503             USA    
10 Desmophyllum p… Cnida… Desm… pertus…                1 494             USA    
# ℹ 24,758 more rows
# ℹ 1 more variable: geometry <POINT [°]>
…
